{
  "type": "postgres",
  "username": "postgres",
  "password": "secret",
  "host": "localhost",
  "database": "accounting",
  "logging": false,
  "entities": ["./dist/**/*.entity.js"],
  "migrations": ["./dist/server/migrations/*.js"],
  "cli": {
      "migrationsDir": "./src/migrations"
  }
}
